[
    {
        "album": {
            "album_type": "album",
            "artists": [
                {
                    "external_urls": {
                        "spotify": "https://open.spotify.com/artist/1O10apSOoAPjOu6UhUNmeI"
                    },
                    "href": "https://api.spotify.com/v1/artists/1O10apSOoAPjOu6UhUNmeI",
                    "id": "1O10apSOoAPjOu6UhUNmeI",
                    "name": "SBTRKT",
                    "type": "artist",
                    "uri": "spotify:artist:1O10apSOoAPjOu6UhUNmeI"
                }
            ],
            "available_markets": [
                "AD",
                "AE",
                "AG",
                "AL",
                "AM",
                "AO",
                "AR",
                "AT",
                "AU",
                "AZ",
                "BA",
                "BB",
                "BD",
                "BE",
                "BF",
                "BG",
                "BH",
                "BI",
                "BJ",
                "BN",
                "BO",
                "BR",
                "BS",
                "BT",
                "BW",
                "BY",
                "BZ",
                "CA",
                "CH",
                "CI",
                "CL",
                "CM",
                "CO",
                "CR",
                "CV",
                "CW",
                "CY",
                "CZ",
                "DE",
                "DJ",
                "DK",
                "DM",
                "DO",
                "DZ",
                "EC",
                "EE",
                "EG",
                "ES",
                "FI",
                "FJ",
                "FM",
                "FR",
                "GA",
                "GB",
                "GD",
                "GE",
                "GH",
                "GM",
                "GN",
                "GQ",
                "GR",
                "GT",
                "GW",
                "GY",
                "HK",
                "HN",
                "HR",
                "HT",
                "HU",
                "ID",
                "IE",
                "IL",
                "IN",
                "IS",
                "IT",
                "JM",
                "JO",
                "JP",
                "KE",
                "KG",
                "KH",
                "KI",
                "KM",
                "KN",
                "KR",
                "KW",
                "KZ",
                "LA",
                "LB",
                "LC",
                "LI",
                "LK",
                "LR",
                "LS",
                "LT",
                "LU",
                "LV",
                "MA",
                "MC",
                "MD",
                "ME",
                "MG",
                "MH",
                "MK",
                "ML",
                "MN",
                "MO",
                "MR",
                "MT",
                "MU",
                "MV",
                "MW",
                "MX",
                "MY",
                "MZ",
                "NA",
                "NE",
                "NG",
                "NI",
                "NL",
                "NO",
                "NP",
                "NR",
                "NZ",
                "OM",
                "PA",
                "PE",
                "PG",
                "PH",
                "PK",
                "PL",
                "PS",
                "PT",
                "PW",
                "PY",
                "QA",
                "RO",
                "RS",
                "RU",
                "RW",
                "SA",
                "SB",
                "SC",
                "SE",
                "SG",
                "SI",
                "SK",
                "SL",
                "SM",
                "SN",
                "SR",
                "ST",
                "SV",
                "SZ",
                "TD",
                "TG",
                "TH",
                "TL",
                "TN",
                "TO",
                "TR",
                "TT",
                "TV",
                "TW",
                "TZ",
                "UA",
                "UG",
                "US",
                "UY",
                "UZ",
                "VC",
                "VN",
                "VU",
                "WS",
                "XK",
                "ZA",
                "ZM",
                "ZW"
            ],
            "external_urls": {
                "spotify": "https://open.spotify.com/album/4J9gt4YOazmavlYw4hMrfY"
            },
            "href": "https://api.spotify.com/v1/albums/4J9gt4YOazmavlYw4hMrfY",
            "id": "4J9gt4YOazmavlYw4hMrfY",
            "images": [
                {
                    "height": 640,
                    "url": "https://i.scdn.co/image/ab67616d0000b27334eafdf430519f1c5d37adf5",
                    "width": 640
                },
                {
                    "height": 300,
                    "url": "https://i.scdn.co/image/ab67616d00001e0234eafdf430519f1c5d37adf5",
                    "width": 300
                },
                {
                    "height": 64,
                    "url": "https://i.scdn.co/image/ab67616d0000485134eafdf430519f1c5d37adf5",
                    "width": 64
                }
            ],
            "name": "Wonder Where We Land",
            "release_date": "2014-09-29",
            "release_date_precision": "day",
            "total_tracks": 21,
            "type": "album",
            "uri": "spotify:album:4J9gt4YOazmavlYw4hMrfY"
        },
        "artists": [
            {
                "external_urls": {
                    "spotify": "https://open.spotify.com/artist/1O10apSOoAPjOu6UhUNmeI"
                },
                "href": "https://api.spotify.com/v1/artists/1O10apSOoAPjOu6UhUNmeI",
                "id": "1O10apSOoAPjOu6UhUNmeI",
                "name": "SBTRKT",
                "type": "artist",
                "uri": "spotify:artist:1O10apSOoAPjOu6UhUNmeI"
            },
            {
                "external_urls": {
                    "spotify": "https://open.spotify.com/artist/4bS7w1U8P3Zuaa5jmj3mvN"
                },
                "href": "https://api.spotify.com/v1/artists/4bS7w1U8P3Zuaa5jmj3mvN",
                "id": "4bS7w1U8P3Zuaa5jmj3mvN",
                "name": "Denai Moore",
                "type": "artist",
                "uri": "spotify:artist:4bS7w1U8P3Zuaa5jmj3mvN"
            }
        ],
        "available_markets": [
            "AD",
            "AE",
            "AG",
            "AL",
            "AM",
            "AO",
            "AR",
            "AT",
            "AU",
            "AZ",
            "BA",
            "BB",
            "BD",
            "BE",
            "BF",
            "BG",
            "BH",
            "BI",
            "BJ",
            "BN",
            "BO",
            "BR",
            "BS",
            "BT",
            "BW",
            "BY",
            "BZ",
            "CA",
            "CH",
            "CI",
            "CL",
            "CM",
            "CO",
            "CR",
            "CV",
            "CW",
            "CY",
            "CZ",
            "DE",
            "DJ",
            "DK",
            "DM",
            "DO",
            "DZ",
            "EC",
            "EE",
            "EG",
            "ES",
            "FI",
            "FJ",
            "FM",
            "FR",
            "GA",
            "GB",
            "GD",
            "GE",
            "GH",
            "GM",
            "GN",
            "GQ",
            "GR",
            "GT",
            "GW",
            "GY",
            "HK",
            "HN",
            "HR",
            "HT",
            "HU",
            "ID",
            "IE",
            "IL",
            "IN",
            "IS",
            "IT",
            "JM",
            "JO",
            "JP",
            "KE",
            "KG",
            "KH",
            "KI",
            "KM",
            "KN",
            "KR",
            "KW",
            "KZ",
            "LA",
            "LB",
            "LC",
            "LI",
            "LK",
            "LR",
            "LS",
            "LT",
            "LU",
            "LV",
            "MA",
            "MC",
            "MD",
            "ME",
            "MG",
            "MH",
            "MK",
            "ML",
            "MN",
            "MO",
            "MR",
            "MT",
            "MU",
            "MV",
            "MW",
            "MX",
            "MY",
            "MZ",
            "NA",
            "NE",
            "NG",
            "NI",
            "NL",
            "NO",
            "NP",
            "NR",
            "NZ",
            "OM",
            "PA",
            "PE",
            "PG",
            "PH",
            "PK",
            "PL",
            "PS",
            "PT",
            "PW",
            "PY",
            "QA",
            "RO",
            "RS",
            "RU",
            "RW",
            "SA",
            "SB",
            "SC",
            "SE",
            "SG",
            "SI",
            "SK",
            "SL",
            "SM",
            "SN",
            "SR",
            "ST",
            "SV",
            "SZ",
            "TD",
            "TG",
            "TH",
            "TL",
            "TN",
            "TO",
            "TR",
            "TT",
            "TV",
            "TW",
            "TZ",
            "UA",
            "UG",
            "US",
            "UY",
            "UZ",
            "VC",
            "VN",
            "VU",
            "WS",
            "XK",
            "ZA",
            "ZM",
            "ZW"
        ],
        "disc_number": 1,
        "duration_ms": 186436,
        "explicit": false,
        "external_ids": {
            "isrc": "GBBKS1400215"
        },
        "external_urls": {
            "spotify": "https://open.spotify.com/track/1lFz7QPoxqBdUV4iugS3MX"
        },
        "href": "https://api.spotify.com/v1/tracks/1lFz7QPoxqBdUV4iugS3MX",
        "id": "1lFz7QPoxqBdUV4iugS3MX",
        "is_local": false,
        "name": "The Light",
        "popularity": 38,
        "preview_url": "https://p.scdn.co/mp3-preview/a92f97a210920c10a575bdfd150a5abb49fda413?cid=6f430e9dd6b045028ee95e2f84a613f2",
        "track_number": 14,
        "type": "track",
        "uri": "spotify:track:1lFz7QPoxqBdUV4iugS3MX"
    },
    {
        "album": {
            "album_type": "album",
            "artists": [
                {
                    "external_urls": {
                        "spotify": "https://open.spotify.com/artist/1O10apSOoAPjOu6UhUNmeI"
                    },
                    "href": "https://api.spotify.com/v1/artists/1O10apSOoAPjOu6UhUNmeI",
                    "id": "1O10apSOoAPjOu6UhUNmeI",
                    "name": "SBTRKT",
                    "type": "artist",
                    "uri": "spotify:artist:1O10apSOoAPjOu6UhUNmeI"
                }
            ],
            "available_markets": [
                "AD",
                "AE",
                "AG",
                "AL",
                "AM",
                "AO",
                "AR",
                "AT",
                "AU",
                "AZ",
                "BA",
                "BB",
                "BD",
                "BE",
                "BF",
                "BG",
                "BH",
                "BI",
                "BJ",
                "BN",
                "BO",
                "BR",
                "BS",
                "BT",
                "BW",
                "BY",
                "BZ",
                "CH",
                "CI",
                "CL",
                "CM",
                "CO",
                "CR",
                "CV",
                "CW",
                "CY",
                "CZ",
                "DE",
                "DJ",
                "DK",
                "DM",
                "DO",
                "DZ",
                "EC",
                "EE",
                "EG",
                "ES",
                "FI",
                "FJ",
                "FM",
                "FR",
                "GA",
                "GB",
                "GD",
                "GE",
                "GH",
                "GM",
                "GN",
                "GQ",
                "GR",
                "GT",
                "GW",
                "GY",
                "HK",
                "HN",
                "HR",
                "HT",
                "HU",
                "ID",
                "IE",
                "IL",
                "IN",
                "IS",
                "IT",
                "JM",
                "JO",
                "JP",
                "KE",
                "KG",
                "KH",
                "KI",
                "KM",
                "KN",
                "KR",
                "KW",
                "KZ",
                "LA",
                "LB",
                "LC",
                "LI",
                "LK",
                "LR",
                "LS",
                "LT",
                "LU",
                "LV",
                "MA",
                "MC",
                "MD",
                "ME",
                "MG",
                "MH",
                "MK",
                "ML",
                "MN",
                "MO",
                "MR",
                "MT",
                "MU",
                "MV",
                "MW",
                "MX",
                "MY",
                "MZ",
                "NA",
                "NE",
                "NG",
                "NI",
                "NL",
                "NO",
                "NP",
                "NR",
                "NZ",
                "OM",
                "PA",
                "PE",
                "PG",
                "PH",
                "PK",
                "PL",
                "PS",
                "PT",
                "PW",
                "PY",
                "QA",
                "RO",
                "RS",
                "RU",
                "RW",
                "SA",
                "SB",
                "SC",
                "SE",
                "SG",
                "SI",
                "SK",
                "SL",
                "SM",
                "SN",
                "SR",
                "ST",
                "SV",
                "SZ",
                "TD",
                "TG",
                "TH",
                "TL",
                "TN",
                "TO",
                "TR",
                "TT",
                "TV",
                "TW",
                "TZ",
                "UA",
                "UG",
                "UY",
                "UZ",
                "VC",
                "VN",
                "VU",
                "WS",
                "XK",
                "ZA",
                "ZM",
                "ZW"
            ],
            "external_urls": {
                "spotify": "https://open.spotify.com/album/5LTNo4fwRbCmzbLawMKPgu"
            },
            "href": "https://api.spotify.com/v1/albums/5LTNo4fwRbCmzbLawMKPgu",
            "id": "5LTNo4fwRbCmzbLawMKPgu",
            "images": [
                {
                    "height": 640,
                    "url": "https://i.scdn.co/image/ab67616d0000b273ef3a5cd6a25558c82014b9e4",
                    "width": 640
                },
                {
                    "height": 300,
                    "url": "https://i.scdn.co/image/ab67616d00001e02ef3a5cd6a25558c82014b9e4",
                    "width": 300
                },
                {
                    "height": 64,
                    "url": "https://i.scdn.co/image/ab67616d00004851ef3a5cd6a25558c82014b9e4",
                    "width": 64
                }
            ],
            "name": "Wonder Where We Land",
            "release_date": "2014-09-29",
            "release_date_precision": "day",
            "total_tracks": 15,
            "type": "album",
            "uri": "spotify:album:5LTNo4fwRbCmzbLawMKPgu"
        },
        "artists": [
            {
                "external_urls": {
                    "spotify": "https://open.spotify.com/artist/1O10apSOoAPjOu6UhUNmeI"
                },
                "href": "https://api.spotify.com/v1/artists/1O10apSOoAPjOu6UhUNmeI",
                "id": "1O10apSOoAPjOu6UhUNmeI",
                "name": "SBTRKT",
                "type": "artist",
                "uri": "spotify:artist:1O10apSOoAPjOu6UhUNmeI"
            },
            {
                "external_urls": {
                    "spotify": "https://open.spotify.com/artist/4bS7w1U8P3Zuaa5jmj3mvN"
                },
                "href": "https://api.spotify.com/v1/artists/4bS7w1U8P3Zuaa5jmj3mvN",
                "id": "4bS7w1U8P3Zuaa5jmj3mvN",
                "name": "Denai Moore",
                "type": "artist",
                "uri": "spotify:artist:4bS7w1U8P3Zuaa5jmj3mvN"
            }
        ],
        "available_markets": [
            "AD",
            "AE",
            "AG",
            "AL",
            "AM",
            "AO",
            "AR",
            "AT",
            "AU",
            "AZ",
            "BA",
            "BB",
            "BD",
            "BE",
            "BF",
            "BG",
            "BH",
            "BI",
            "BJ",
            "BN",
            "BO",
            "BR",
            "BS",
            "BT",
            "BW",
            "BY",
            "BZ",
            "CH",
            "CI",
            "CL",
            "CM",
            "CO",
            "CR",
            "CV",
            "CW",
            "CY",
            "CZ",
            "DE",
            "DJ",
            "DK",
            "DM",
            "DO",
            "DZ",
            "EC",
            "EE",
            "EG",
            "ES",
            "FI",
            "FJ",
            "FM",
            "FR",
            "GA",
            "GB",
            "GD",
            "GE",
            "GH",
            "GM",
            "GN",
            "GQ",
            "GR",
            "GT",
            "GW",
            "GY",
            "HK",
            "HN",
            "HR",
            "HT",
            "HU",
            "ID",
            "IE",
            "IL",
            "IN",
            "IS",
            "IT",
            "JM",
            "JO",
            "JP",
            "KE",
            "KG",
            "KH",
            "KI",
            "KM",
            "KN",
            "KR",
            "KW",
            "KZ",
            "LA",
            "LB",
            "LC",
            "LI",
            "LK",
            "LR",
            "LS",
            "LT",
            "LU",
            "LV",
            "MA",
            "MC",
            "MD",
            "ME",
            "MG",
            "MH",
            "MK",
            "ML",
            "MN",
            "MO",
            "MR",
            "MT",
            "MU",
            "MV",
            "MW",
            "MX",
            "MY",
            "MZ",
            "NA",
            "NE",
            "NG",
            "NI",
            "NL",
            "NO",
            "NP",
            "NR",
            "NZ",
            "OM",
            "PA",
            "PE",
            "PG",
            "PH",
            "PK",
            "PL",
            "PS",
            "PT",
            "PW",
            "PY",
            "QA",
            "RO",
            "RS",
            "RU",
            "RW",
            "SA",
            "SB",
            "SC",
            "SE",
            "SG",
            "SI",
            "SK",
            "SL",
            "SM",
            "SN",
            "SR",
            "ST",
            "SV",
            "SZ",
            "TD",
            "TG",
            "TH",
            "TL",
            "TN",
            "TO",
            "TR",
            "TT",
            "TV",
            "TW",
            "TZ",
            "UA",
            "UG",
            "UY",
            "UZ",
            "VC",
            "VN",
            "VU",
            "WS",
            "XK",
            "ZA",
            "ZM",
            "ZW"
        ],
        "disc_number": 1,
        "duration_ms": 186436,
        "explicit": false,
        "external_ids": {
            "isrc": "GBBKS1400215"
        },
        "external_urls": {
            "spotify": "https://open.spotify.com/track/0T6igZIkUI0QzYPLsrS42b"
        },
        "href": "https://api.spotify.com/v1/tracks/0T6igZIkUI0QzYPLsrS42b",
        "id": "0T6igZIkUI0QzYPLsrS42b",
        "is_local": false,
        "name": "The Light",
        "popularity": 0,
        "preview_url": "https://p.scdn.co/mp3-preview/a92f97a210920c10a575bdfd150a5abb49fda413?cid=6f430e9dd6b045028ee95e2f84a613f2",
        "track_number": 14,
        "type": "track",
        "uri": "spotify:track:0T6igZIkUI0QzYPLsrS42b"
    }
]